quartus/decoder/simulation/qsim/decoder.msim.vcd
$comment
	File created using the following command:
		vcd file decoder.msim.vcd -direction
$end
$date
	Sun Mar 29 14:21:19 2020
$end
$version
	ModelSim Version 10.5b
$end
$timescale
	1ps
$end

$scope module decoder_vlg_vec_tst $end
$var reg 3 ! IN [2:0] $end
$var wire 1 " OUT [7] $end
$var wire 1 # OUT [6] $end
$var wire 1 $ OUT [5] $end
$var wire 1 % OUT [4] $end
$var wire 1 & OUT [3] $end
$var wire 1 ' OUT [2] $end
$var wire 1 ( OUT [1] $end
$var wire 1 ) OUT [0] $end

$scope module i1 $end
$var wire 1 * gnd $end
$var wire 1 + vcc $end
$var wire 1 , unknown $end
$var tri1 1 - devclrn $end
$var tri1 1 . devpor $end
$var tri1 1 / devoe $end
$var wire 1 0 OUT[0]~output_o $end
$var wire 1 1 OUT[1]~output_o $end
$var wire 1 2 OUT[2]~output_o $end
$var wire 1 3 OUT[3]~output_o $end
$var wire 1 4 OUT[4]~output_o $end
$var wire 1 5 OUT[5]~output_o $end
$var wire 1 6 OUT[6]~output_o $end
$var wire 1 7 OUT[7]~output_o $end
$var wire 1 8 IN[1]~input_o $end
$var wire 1 9 IN[2]~input_o $end
$var wire 1 : IN[0]~input_o $end
$var wire 1 ; Decoder0~0_combout $end
$var wire 1 < Decoder0~1_combout $end
$var wire 1 = Decoder0~2_combout $end
$var wire 1 > Decoder0~3_combout $end
$var wire 1 ? Decoder0~4_combout $end
$var wire 1 @ Decoder0~5_combout $end
$var wire 1 A Decoder0~6_combout $end
$var wire 1 B Decoder0~7_combout $end
$upscope $end
$upscope $end
$enddefinitions $end
#0
$dumpvars
b0 !
x)
x(
x'
x&
x%
x$
x#
x"
0*
1+
x,
1-
1.
1/
x0
x1
x2
x3
x4
x5
x6
x7
08
09
0:
x;
x<
x=
x>
x?
x@
xA
xB
$end
#3899
0>
0@
0B
#3905
0<
#4213
0?
#4244
0A
#4266
1;
#4268
0=
#7432
07
0"
#7733
01
0(
#7746
04
0%
#7780
03
0&
#7810
02
0'
#8155
10
1)
#9046
05
0$
#10000
b1 !
#10003
06
0#
#10684
1:
#14303
0;
#14321
1<
#18152
00
0)
#18178
11
1(
#20000
b11 !
b10 !
#20684
18
#20799
0:
#24588
0<
#24710
1=
#28322
12
1'
#28416
01
0(
#30000
b11 !
#30684
1:
#34300
0=
#34321
1>
#37842
02
0'
#38228
13
1&
#40000
b111 !
b101 !
b100 !
#40684
19
#40799
08
0:
#44550
1B
#44590
0>
#44698
0B
#45091
1?
#48471
03
0&
#48694
14
1%
#50000
b101 !
#50684
1:
#54299
0?
#54317
1@
#57832
04
0%
#59528
15
1$
#60000
b111 !
b110 !
#60684
18
#60799
0:
#64617
0@
#64717
1A
#69764
05
0$
#70000
b111 !
#70392
16
1#
#70684
1:
#74301
0A
#74316
1B
#77915
17
1"
#80000
b11 !
b1 !
b0 !
#80060
06
0#
#80799
09
08
0:
#84698
0B
#85065
1;
#88231
07
0"
#88954
10
1)
#90000
b1 !
#90684
1:
#94303
0;
#94321
1<
#98152
00
0)
#98178
11
1(
#100000
b11 !
b10 !
#100684
18
#100799
0:
#104588
0<
#104710
1=
#108322
12
1'
#108416
01
0(
#110000
b11 !
#110684
1:
#114300
0=
#114321
1>
#117842
02
0'
#118228
13
1&
#120000
b111 !
b101 !
b100 !
#120684
19
#120799
08
0:
#124550
1B
#124590
0>
#124698
0B
#125091
1?
#128471
03
0&
#128694
14
1%
#130000
b101 !
#130684
1:
#134299
0?
#134317
1@
#137832
04
0%
#139528
15
1$
#140000
b111 !
b110 !
#140684
18
#140799
0:
#144617
0@
#144717
1A
#149764
05
0$
#150000
b111 !
#150392
16
1#
#150684
1:
#154301
0A
#154316
1B
#157915
17
1"
#160000
b11 !
b1 !
b0 !
#160060
06
0#
#160799
09
08
0:
#164698
0B
#165065
1;
#168231
07
0"
#168954
10
1)
#170000
b1 !
#170684
1:
#174303
0;
#174321
1<
#178152
00
0)
#178178
11
1(
#180000
b11 !
b10 !
#180684
18
#180799
0:
#184588
0<
#184710
1=
#188322
12
1'
#188416
01
0(
#190000
b11 !
#190684
1:
#194300
0=
#194321
1>
#197842
02
0'
#198228
13
1&
#200000
b111 !
b101 !
b100 !
#200684
19
#200799
08
0:
#204550
1B
#204590
0>
#204698
0B
#205091
1?
#208471
03
0&
#208694
14
1%
#210000
b101 !
#210684
1:
#214299
0?
#214317
1@
#217832
04
0%
#219528
15
1$
#220000
b111 !
b110 !
#220684
18
#220799
0:
#224617
0@
#224717
1A
#229764
05
0$
#230000
b111 !
#230392
16
1#
#230684
1:
#234301
0A
#234316
1B
#237915
17
1"
#240000
b11 !
b1 !
b0 !
#240060
06
0#
#240799
09
08
0:
#244698
0B
#245065
1;
#248231
07
0"
#248954
10
1)
#250000
b1 !
#250684
1:
#254303
0;
#254321
1<
#258152
00
0)
#258178
11
1(
#260000
b11 !
b10 !
#260684
18
#260799
0:
#264588
0<
#264710
1=
#268322
12
1'
#268416
01
0(
#270000
b11 !
#270684
1:
#274300
0=
#274321
1>
#277842
02
0'
#278228
13
1&
#280000
b111 !
b101 !
b100 !
#280684
19
#280799
08
0:
#284550
1B
#284590
0>
#284698
0B
#285091
1?
#288471
03
0&
#288694
14
1%
#290000
b101 !
#290684
1:
#294299
0?
#294317
1@
#297832
04
0%
#299528
15
1$
#300000
b111 !
b110 !
#300684
18
#300799
0:
#304617
0@
#304717
1A
#309764
05
0$
#310000
b111 !
#310392
16
1#
#310684
1:
#314301
0A
#314316
1B
#317915
17
1"
#320000
b11 !
b1 !
b0 !
#320060
06
0#
#320799
09
08
0:
#324698
0B
#325065
1;
#328231
07
0"
#328954
10
1)
#330000
b1 !
#330684
1:
#334303
0;
#334321
1<
#338152
00
0)
#338178
11
1(
#340000
b11 !
b10 !
#340684
18
#340799
0:
#344588
0<
#344710
1=
#348322
12
1'
#348416
01
0(
#350000
b11 !
#350684
1:
#354300
0=
#354321
1>
#357842
02
0'
#358228
13
1&
#360000
b111 !
b101 !
b100 !
#360684
19
#360799
08
0:
#364550
1B
#364590
0>
#364698
0B
#365091
1?
#368471
03
0&
#368694
14
1%
#370000
b101 !
#370684
1:
#374299
0?
#374317
1@
#377832
04
0%
#379528
15
1$
#380000
b111 !
b110 !
#380684
18
#380799
0:
#384617
0@
#384717
1A
#389764
05
0$
#390000
b111 !
#390392
16
1#
#390684
1:
#394301
0A
#394316
1B
#397915
17
1"
#400000
b11 !
b1 !
b0 !
#400060
06
0#
#400799
09
08
0:
#404698
0B
#405065
1;
#408231
07
0"
#408954
10
1)
#410000
b1 !
#410684
1:
#414303
0;
#414321
1<
#418152
00
0)
#418178
11
1(
#420000
b11 !
b10 !
#420684
18
#420799
0:
#424588
0<
#424710
1=
#428322
12
1'
#428416
01
0(
#430000
b11 !
#430684
1:
#434300
0=
#434321
1>
#437842
02
0'
#438228
13
1&
#440000
b111 !
b101 !
b100 !
#440684
19
#440799
08
0:
#444550
1B
#444590
0>
#444698
0B
#445091
1?
#448471
03
0&
#448694
14
1%
#450000
b101 !
#450684
1:
#454299
0?
#454317
1@
#457832
04
0%
#459528
15
1$
#460000
b111 !
b110 !
#460684
18
#460799
0:
#464617
0@
#464717
1A
#469764
05
0$
#470000
b111 !
#470392
16
1#
#470684
1:
#474301
0A
#474316
1B
#477915
17
1"
#480000
b11 !
b1 !
b0 !
#480060
06
0#
#480799
09
08
0:
#484698
0B
#485065
1;
#488231
07
0"
#488954
10
1)
#490000
b1 !
#490684
1:
#494303
0;
#494321
1<
#498152
00
0)
#498178
11
1(
#500000
b11 !
b10 !
#500684
18
#500799
0:
#504588
0<
#504710
1=
#508322
12
1'
#508416
01
0(
#510000
b11 !
#510684
1:
#514300
0=
#514321
1>
#517842
02
0'
#518228
13
1&
#520000
b111 !
b101 !
b100 !
#520684
19
#520799
08
0:
#524550
1B
#524590
0>
#524698
0B
#525091
1?
#528471
03
0&
#528694
14
1%
#530000
b101 !
#530684
1:
#534299
0?
#534317
1@
#537832
04
0%
#539528
15
1$
#540000
b111 !
b110 !
#540684
18
#540799
0:
#544617
0@
#544717
1A
#549764
05
0$
#550000
b111 !
#550392
16
1#
#550684
1:
#554301
0A
#554316
1B
#557915
17
1"
#560000
b11 !
b1 !
b0 !
#560060
06
0#
#560799
09
08
0:
#564698
0B
#565065
1;
#568231
07
0"
#568954
10
1)
#570000
b1 !
#570684
1:
#574303
0;
#574321
1<
#578152
00
0)
#578178
11
1(
#580000
b11 !
b10 !
#580684
18
#580799
0:
#584588
0<
#584710
1=
#588322
12
1'
#588416
01
0(
#590000
b11 !
#590684
1:
#594300
0=
#594321
1>
#597842
02
0'
#598228
13
1&
#600000
b111 !
b101 !
b100 !
#600684
19
#600799
08
0:
#604550
1B
#604590
0>
#604698
0B
#605091
1?
#608471
03
0&
#608694
14
1%
#610000
b101 !
#610684
1:
#614299
0?
#614317
1@
#617832
04
0%
#619528
15
1$
#620000
b111 !
b110 !
#620684
18
#620799
0:
#624617
0@
#624717
1A
#629764
05
0$
#630000
b111 !
#630392
16
1#
#630684
1:
#634301
0A
#634316
1B
#637915
17
1"
#640000
b11 !
b1 !
b0 !
#640060
06
0#
#640799
09
08
0:
#644698
0B
#645065
1;
#648231
07
0"
#648954
10
1)
#650000
b1 !
#650684
1:
#654303
0;
#654321
1<
#658152
00
0)
#658178
11
1(
#660000
b11 !
b10 !
#660684
18
#660799
0:
#664588
0<
#664710
1=
#668322
12
1'
#668416
01
0(
#670000
b11 !
#670684
1:
#674300
0=
#674321
1>
#677842
02
0'
#678228
13
1&
#680000
b111 !
b101 !
b100 !
#680684
19
#680799
08
0:
#684550
1B
#684590
0>
#684698
0B
#685091
1?
#688471
03
0&
#688694
14
1%
#690000
b101 !
#690684
1:
#694299
0?
#694317
1@
#697832
04
0%
#699528
15
1$
#700000
b111 !
b110 !
#700684
18
#700799
0:
#704617
0@
#704717
1A
#709764
05
0$
#710000
b111 !
#710392
16
1#
#710684
1:
#714301
0A
#714316
1B
#717915
17
1"
#720000
b11 !
b1 !
b0 !
#720060
06
0#
#720799
09
08
0:
#724698
0B
#725065
1;
#728231
07
0"
#728954
10
1)
#730000
b1 !
#730684
1:
#734303
0;
#734321
1<
#738152
00
0)
#738178
11
1(
#740000
b11 !
b10 !
#740684
18
#740799
0:
#744588
0<
#744710
1=
#748322
12
1'
#748416
01
0(
#750000
b11 !
#750684
1:
#754300
0=
#754321
1>
#757842
02
0'
#758228
13
1&
#760000
b111 !
b101 !
b100 !
#760684
19
#760799
08
0:
#764550
1B
#764590
0>
#764698
0B
#765091
1?
#768471
03
0&
#768694
14
1%
#770000
b101 !
#770684
1:
#774299
0?
#774317
1@
#777832
04
0%
#779528
15
1$
#780000
b111 !
b110 !
#780684
18
#780799
0:
#784617
0@
#784717
1A
#789764
05
0$
#790000
b111 !
#790392
16
1#
#790684
1:
#794301
0A
#794316
1B
#797915
17
1"
#800000
b11 !
b1 !
b0 !
#800060
06
0#
#800799
09
08
0:
#804698
0B
#805065
1;
#808231
07
0"
#808954
10
1)
#810000
b1 !
#810684
1:
#814303
0;
#814321
1<
#818152
00
0)
#818178
11
1(
#820000
b11 !
b10 !
#820684
18
#820799
0:
#824588
0<
#824710
1=
#828322
12
1'
#828416
01
0(
#830000
b11 !
#830684
1:
#834300
0=
#834321
1>
#837842
02
0'
#838228
13
1&
#840000
b111 !
b101 !
b100 !
#840684
19
#840799
08
0:
#844550
1B
#844590
0>
#844698
0B
#845091
1?
#848471
03
0&
#848694
14
1%
#850000
b101 !
#850684
1:
#854299
0?
#854317
1@
#857832
04
0%
#859528
15
1$
#860000
b111 !
b110 !
#860684
18
#860799
0:
#864617
0@
#864717
1A
#869764
05
0$
#870000
b111 !
#870392
16
1#
#870684
1:
#874301
0A
#874316
1B
#877915
17
1"
#880000
b11 !
b1 !
b0 !
#880060
06
0#
#880799
09
08
0:
#884698
0B
#885065
1;
#888231
07
0"
#888954
10
1)
#890000
b1 !
#890684
1:
#894303
0;
#894321
1<
#898152
00
0)
#898178
11
1(
#900000
b11 !
b10 !
#900684
18
#900799
0:
#904588
0<
#904710
1=
#908322
12
1'
#908416
01
0(
#910000
b11 !
#910684
1:
#914300
0=
#914321
1>
#917842
02
0'
#918228
13
1&
#920000
b111 !
b101 !
b100 !
#920684
19
#920799
08
0:
#924550
1B
#924590
0>
#924698
0B
#925091
1?
#928471
03
0&
#928694
14
1%
#930000
b101 !
#930684
1:
#934299
0?
#934317
1@
#937832
04
0%
#939528
15
1$
#940000
b111 !
b110 !
#940684
18
#940799
0:
#944617
0@
#944717
1A
#949764
05
0$
#950000
b111 !
#950392
16
1#
#950684
1:
#954301
0A
#954316
1B
#957915
17
1"
#960000
b11 !
b1 !
b0 !
#960060
06
0#
#960799
09
08
0:
#964698
0B
#965065
1;
#968231
07
0"
#968954
10
1)
#970000
b1 !
#970684
1:
#974303
0;
#974321
1<
#978152
00
0)
#978178
11
1(
#980000
b11 !
b10 !
#980684
18
#980799
0:
#984588
0<
#984710
1=
#988322
12
1'
#988416
01
0(
#990000
b11 !
#990684
1:
#994300
0=
#994321
1>
#997842
02
0'
#998228
13
1&
